module gitlab.com/paidit-se/mongo-mocks

go 1.18

require (
	gitlab.com/paidit-se/mongo-wrappers v0.0.8
	go.mongodb.org/mongo-driver/v2 v2.1.0
)

require (
	github.com/golang/snappy v0.0.4 // indirect
	github.com/klauspost/compress v1.16.7 // indirect
	github.com/xdg-go/pbkdf2 v1.0.0 // indirect
	github.com/xdg-go/scram v1.1.2 // indirect
	github.com/xdg-go/stringprep v1.0.4 // indirect
	github.com/youmark/pkcs8 v0.0.0-20240726163527-a2c0da244d78 // indirect
	golang.org/x/crypto v0.33.0 // indirect
	golang.org/x/sync v0.11.0 // indirect
	golang.org/x/text v0.22.0 // indirect
)
